<svg xmlns="http://www.w3.org/2000/svg" viewBox="0 0 71.824 94.742">
  <defs>
    <style>
      .cls-1 {
        fill: none;
        stroke: #c2c8ce;
        stroke-width: 5px;
      }
    </style>
  </defs>
  <g id="Group_10" data-name="Group 10" transform="translate(-590.488 -325.808)">
    <path id="Path_76" data-name="Path 76" class="cls-1" d="M2814.576,369.426h-46.865l-3.328,64.294h50.193" transform="translate(-2171.262 -15.67)"/>
    <path id="Path_77" data-name="Path 77" class="cls-1" d="M2764.383,369.426h46.866l3.327,64.294h-50.193" transform="translate(-2154.897 -15.67)"/>
    <path id="Path_78" data-name="Path 78" class="cls-1" d="M2797.833,352.443s16.53-57.366,33.732,0" transform="translate(-2188.347 1.46)"/>
  </g>
</svg>
