<svg xmlns="http://www.w3.org/2000/svg" viewBox="0 0 95.594 95.594">
  <defs>
    <style>
      .cls-1, .cls-4 {
        fill: none;
      }

      .cls-1 {
        stroke: #c2c8ce;
        stroke-width: 6px;
      }

      .cls-2 {
        fill: #c2c8ce;
      }

      .cls-3 {
        stroke: none;
      }
    </style>
  </defs>
  <g id="Group_9" data-name="Group 9" transform="translate(-348 -326.406)">
    <g id="Ellipse_59" data-name="Ellipse 59" class="cls-1" transform="translate(348 326.406)">
      <circle class="cls-3" cx="47.797" cy="47.797" r="47.797"/>
      <circle class="cls-4" cx="47.797" cy="47.797" r="44.797"/>
    </g>
    <circle id="Ellipse_60" data-name="Ellipse 60" class="cls-2" cx="6.031" cy="6.031" r="6.031" transform="translate(390.125 368.531)"/>
    <rect id="Rectangle_14" data-name="Rectangle 14" class="cls-2" width="2.875" height="10.062" rx="1.437" transform="translate(394.719 338.156)"/>
    <rect id="Rectangle_15" data-name="Rectangle 15" class="cls-2" width="2.875" height="10.062" rx="1.437" transform="translate(394.719 400.906)"/>
    <rect id="Rectangle_18" data-name="Rectangle 18" class="cls-2" width="4" height="37.531" rx="2" transform="matrix(-0.966, -0.259, 0.259, -0.966, 397.82, 375.339)"/>
    <rect id="Rectangle_19" data-name="Rectangle 19" class="cls-2" width="4" height="25.156" rx="2" transform="translate(372.28 366.785) rotate(-69)"/>
    <rect id="Rectangle_20" data-name="Rectangle 20" class="cls-2" width="2.875" height="10.062" rx="1.437" transform="translate(432.563 373.125) rotate(90)"/>
    <rect id="Rectangle_21" data-name="Rectangle 21" class="cls-2" width="2.875" height="10.062" rx="1.437" transform="translate(369.813 373.125) rotate(90)"/>
  </g>
</svg>
